4 Practical: four – Statistical Computing Assignment 1
…
multi_routes <- flights %>%            
  group_by(origin, dest) %>%            # grouping allowing for count in the next line  
  filter(n_distinct(carrier) > 1) %>%   # filtering out non-repeat routes 
  ungroup()

avg_arr_delay <<- multi_routes %>%
  group_by(origin, dest, carrier) %>%   
  summarise(
    arr_del_avg = mean(arr_delay, na.rm = TRUE),
    .groups = "drop"
  )

avg_arr_delay

# A tibble: 343 × 4
   origin dest  carrier arr_del_avg
   <chr>  <chr> <chr>         <dbl>
 1 EWR    ATL   9E            -6.25
 2 EWR    ATL   DL            10.00
 3 EWR    ATL   EV            19.5 
 4 EWR    ATL   UA            10.5 
 5 EWR    AUS   UA             4.28
 6 EWR    AUS   WN           -11.2 
 7 EWR    BDL   EV             6.78
 8 EWR    BDL   UA            22.6 
 9 EWR    BNA   EV            17.7 
10 EWR    BNA   WN            -2.13
# ℹ 333 more rows

4.7 Question 6: Part 3

# filter is used to keep the carrier with lowest delay time per route

avg_arr_delay %>% 
  group_by(origin, dest) %>%            
  filter(arr_del_avg == min(arr_del_avg, na.rm = TRUE)) %>%  
  ungroup()

# A tibble: 128 × 4
   origin dest  carrier arr_del_avg
   <chr>  <chr> <chr>         <dbl>
 1 EWR    ATL   9E           -6.25 
 2 EWR    AUS   WN          -11.2  
 3 EWR    BDL   EV            6.78 
 4 EWR    BNA   WN           -2.13 
 5 EWR    BOS   EV           -4.01 
 6 EWR    BWI   WN            5.95 
 7 EWR    CHS   UA          -14    
 8 EWR    CLE   EV           -3.71 
 9 EWR    CLT   US            0.920
10 EWR    CVG   9E            1.40 
# ℹ 118 more rows
…
